TransactionDate,AssetCodeForm,FundName,ProductName,InvestDisInvestAmount,DisInvestUnits,MancoUTFee,TransactionTypeName,AdminCommission,FundingTranReversalAmount,ReversalIndicator,PaymentMethod,InternalRefNo,SSVSNo
2012/03/15,SPF009,Smoothed Performance Fund,FAIRBAIRN CAPITAL PENSION PRESERVATION PLAN,826024.110,0.000,0.000,61M,22994.500,0.000,,,1,1207500016
2012/03/15,ECA007,Cash Management Acc (PRP),FAIRBAIRN CAPITAL PENSION PRESERVATION PLAN,16813.680,0.000,0.000,42,354.720,0.000,,DD,2,1207500013
2012/03/15,ECA007,Cash Management Acc (PRP),FAIRBAIRN CAPITAL PENSION PRESERVATION PLAN,3314.570,0.000,0.000,65L,0.000,0.000,,,3,
2012/03/15,OML043,Absolute Smooth Growth(namibia),FAIRBAIRN CAPITAL RETIREMENT INCOME PLAN (NAMIBIA),755.890,0.000,0.000,64A,0.000,0.000,,,4,
2012/03/15,NIM001,Call Account (INV),FAIRBAIRN CAPITAL INVESTMENT PLAN,1771547.770,0.000,0.000,61A,0.000,0.000,,,5,1207500010
2012/03/15,OLM344,Symmetry Money Market Fund (INV),FAIRBAIRN CAPITAL INVESTMENT PLAN,18550.333,0.000,0.000,LAO,0.000,0.000,,,6,
2012/03/15,ECA008,Cash Management Acc (PRV),FAIRBAIRN CAPITAL PROVIDENT PRESERVATION PLAN,1330.320,0.000,0.000,65L,0.000,0.000,,,7,
2012/03/15,ECA010,Cash Management Acc (ULA),FAIRBAIRN CAPITAL RETIREMENT INCOME PLAN,279025.010,0.000,0.000,LAI,0.000,0.000,,,8,1207500014
2012/03/15,ECA010,Cash Management Acc (ULA),FAIRBAIRN CAPITAL RETIREMENT INCOME PLAN,8373.400,0.000,0.000,65W,0.000,0.000,,,9,
2012/03/15,ECA006,Cash Management Acc (LAP),GALAXY LIFE ANNUITY PLAN,3809.550,0.000,0.000,65C,0.000,0.000,,,10,
2012/03/15,NIM025,Call Account (ULA),FAIRBAIRN CAPITAL RETIREMENT INCOME PLAN,14070.090,0.000,0.000,OFA,0.000,0.000,,,11,
2012/03/15,ECA004,Cash Management Acc (INV),FAIRBAIRN CAPITAL INVESTMENT PLAN,278.938,0.000,0.000,42,0.000,278.820,R,OO,12,
2012/03/15,ECA004,Cash Management Acc (INV),FAIRBAIRN CAPITAL INVESTMENT PLAN,82910.540,0.000,0.000,64B,0.000,0.000,,,13,